00:00:00.255696 VirtualBox GUI VM Selector Window 7.1.6 r167084 linux.amd64 (Jan 27 2025 07:52:25) release log
00:00:00.255697 Log opened 2025-02-05T19:34:22.556897000Z
00:00:00.255698 Build Type: release
00:00:00.255699 OS Product: Linux
00:00:00.255699 OS Release: 6.13.1-zen1-1-zen
00:00:00.255700 OS Version: #1 ZEN SMP PREEMPT_DYNAMIC Sun, 02 Feb 2025 01:02:11 +0000
00:00:00.255714 DMI Product Name: VivoBook_ASUSLaptop X515EA_X515EA
00:00:00.255717 DMI Product Version: 1.0       
00:00:00.255720 Firmware type: UEFI
00:00:00.255894 Secure Boot: Disabled
00:00:00.255915 Host RAM: 11655MB (11.3GB) total, 8254MB (8.0GB) available
00:00:00.255917 Executable: /usr/lib/virtualbox/VirtualBox
00:00:00.255917 Process ID: 15286
00:00:00.255917 Package type: LINUX_64BITS_GENERIC (OSE)
00:00:00.255932 Qt version: 6.8.2
00:00:00.256692 GUI: UIMediumEnumerator: Initial medium-enumeration finished!
00:00:00.262101 GUI: UIMediumEnumerator: Medium-enumeration started...
00:00:00.675502 GUI: UIMediumEnumerator: Medium-enumeration finished!
00:00:00.694949 GUI: UIDesktopWidgetWatchdog::sltHandleHostScreenAvailableGeometryCalculated: Screen 0 work area is actually resized to: 2559x359 x 800x800
00:00:03.265966 GUI: UIMediumEnumerator: Medium-enumeration finished!
00:00:04.878272 GUI: UIInvisibleWindow::sltFallback: Move event missing. Screen: 1, work area: 2879x539 x 800x800
00:00:04.878305 GUI: UIDesktopWidgetWatchdog::sltHandleHostScreenAvailableGeometryCalculated: Screen 1 work area is actually resized to: 2879x539 x 800x800
00:00:27.330896 GUI: UIMediumEnumerator: Medium-enumeration finished!
00:00:27.366428 GUI: UIMediumEnumerator: Medium-enumeration finished!
00:00:28.208294 GUI: UIMediumEnumerator: Medium-enumeration finished!
00:00:28.252064 GUI: UIMediumEnumerator: Medium-enumeration finished!
00:00:30.812840 GUI: UICommon: Handling aboutToQuit request..
00:00:31.754208 GUI: UICommon: aboutToQuit request handled!
